{
  "routes": [
    {
      "method": "GET",
      "path": "/adminnumbers",
      "handler": "adminnumber.find",
      "config": {
        "policies": []
      }
    },
    {
      "method": "GET",
      "path": "/adminnumbers/count",
      "handler": "adminnumber.count",
      "config": {
        "policies": []
      }
    },
    {
      "method": "GET",
      "path": "/adminnumbers/:id",
      "handler": "adminnumber.findOne",
      "config": {
        "policies": []
      }
    },
    {
      "method": "POST",
      "path": "/adminnumbers",
      "handler": "adminnumber.create",
      "config": {
        "policies": []
      }
    },
    {
      "method": "PUT",
      "path": "/adminnumbers/:id",
      "handler": "adminnumber.update",
      "config": {
        "policies": []
      }
    },
    {
      "method": "DELETE",
      "path": "/adminnumbers/:id",
      "handler": "adminnumber.delete",
      "config": {
        "policies": []
      }
    }
  ]
}
