{
  "routes": [
    {
      "method": "GET",
      "path": "/sectorlanguages",
      "handler": "sectorlanguages.find",
      "config": {
        "policies": []
      }
    },
    {
      "method": "GET",
      "path": "/sectorlanguages/count",
      "handler": "sectorlanguages.count",
      "config": {
        "policies": []
      }
    },
    {
      "method": "GET",
      "path": "/sectorlanguages/:id",
      "handler": "sectorlanguages.findOne",
      "config": {
        "policies": []
      }
    },
    {
      "method": "POST",
      "path": "/sectorlanguages",
      "handler": "sectorlanguages.create",
      "config": {
        "policies": []
      }
    },
    {
      "method": "PUT",
      "path": "/sectorlanguages/:id",
      "handler": "sectorlanguages.update",
      "config": {
        "policies": []
      }
    },
    {
      "method": "DELETE",
      "path": "/sectorlanguages/:id",
      "handler": "sectorlanguages.delete",
      "config": {
        "policies": []
      }
    }
  ]
}
