{
  "kind": "collectionType",
  "collectionName": "adminsectors",
  "info": {
    "name": "Adminsector"
  },
  "options": {
    "increments": true,
    "timestamps": true,
    "draftAndPublish": true
  },
  "pluginOptions": {},
  "attributes": {
    "user": {
      "via": "adminsectors",
      "plugin": "users-permissions",
      "model": "user"
    }
  }
}
