{
    "languages": [
        {
            "name": "Français",
            "icon": "./public/uploads/drapeau_francais_d1caec4beb.png"
        },
        {
            "name": "Espagnol",
            "icon": "./public/uploads/drapeau_espagnol_e592b6d8ef.png"
        },
        {
            "name": "Anglais",
            "icon": "./public/uploads/drapeau_anglais_c898bf6e6e.png"
        }
    ]
}