{
    "places":[
        {
            "Category": "hebergement",
            "Name": "ANRAS Résidence Habitat Jeunes Le Vénasque",
            "Adress": "3 rue de la Résidence 31800 Saint-Gaudens",
            "Timetable": "  ",
            "Longitude": 0.712575,
            "Latitude": 43.106153,
            "Phone": "05.61.94.72.72",
            "Weblink": "  "
        },
        {
            "Category": "hebergement",
            "Name": "Association Accept",
            "Adress": " 10 rue de l'Avenir \n31800 Saint Gaudens",
            "Timetable": "Accueil de jour le mercredi et le vendredi de 14h30 à 17h00 et les autres jours sur rendez vous.",
            "Longitude": 0.72654,
            "Latitude": 43.110111,
            "Phone": " 06-15-03-76-95",
            "Weblink": "https://www.accept-association.org/"
        },
        {
            "Category": "hebergement",
            "Name": "Centre Intercommunal d'Action Sociale (CIAS)",
            "Adress": "4 rue de la République 31800 Saint-Gaudens",
            "Timetable": "lundi au vendredi 8h30-12h / 13H30-17h30",
            "Longitude": 0.722325,
            "Latitude": 43.10774,
            "Phone": "05.62.00.96.20",
            "Weblink": "  "
        },
        {
            "Category": "hebergement",
            "Name": "Emmaüs",
            "Adress": "14 avenue de Boulogne  31800 Saint-Gaudens",
            "Timetable": "Mercredi 9h-12h / 14h-18h - Jeudi 9h-12h - Samedi 9h-12h / 14h-18h",
            "Longitude": 0.722988,
            "Latitude": 43.111446,
            "Phone": "05.61.94.92.67",
            "Weblink": "  "
        },
        {
            "Category": "hebergement",
            "Name": "Le Refuge Saint-Gaudens",
            "Adress": "4 rue de la république\nB.P. 156\n31800 Saint-Gaudens",
            "Timetable": "Accueil tous les vendredis de 14h à 16h30",
            "Longitude": 0.722325,
            "Latitude": 43.10774,
            "Phone": "07 66 38 10 40",
            "Weblink": ""
        },
        {
            "Category": "hebergement",
            "Name": "Maison des Solidarités",
            "Adress": "4 avenue Maréchal Foch\n31800 Saint-Gaudens\n",
            "Timetable": "Lundi au Vendredi 8h30-12h / 13h30-17h",
            "Longitude": 0.718669,
            "Latitude": 43.106191,
            "Phone": "05.62.00.98.10",
            "Weblink": "  "
        },
        {
            "Category": "hebergement",
            "Name": "SIAO Service Intégré d'Accueil et d'Orientatio",
            "Adress": "4 rue de la République\n31800 Saint-Gaudens\n",
            "Timetable": "Lundi-Vendredi 9h-12h / 14h-17h",
            "Longitude": 0.722325,
            "Latitude": 43.10774,
            "Phone": "05.62.00.96.20",
            "Weblink": "  "
        },
        {
            "Category": "infos",
            "Name": "Association Accept",
            "Adress": " 10 rue de l'Avenir \n31800 Saint Gaudens",
            "Timetable": "Accueil de jour le mercredi et le vendredi de 14h30 à 17h00 et les autres jours sur rendez vous.",
            "Longitude": 0.72654,
            "Latitude": 43.110111,
            "Phone": " 06-15-03-76-95",
            "Weblink": "https://www.accept-association.org/"
        },
        {
            "Category": "infos",
            "Name": "Centre Intercommunal d'Action Sociale (CIAS)",
            "Adress": "4 rue de la République \n31800 Saint-Gaudens",
            "Timetable": "Lundi au Vendredi 8h30-12h / 13h30-17h30",
            "Longitude": 0.722325,
            "Latitude": 43.10774,
            "Phone": "05.62.00.96.20",
            "Weblink": "  "
        },
        {
            "Category": "infos",
            "Name": "Centre Social Azimut",
            "Adress": "Place de la Libération (espace Pégot) \n31800 Saint-Gaudens",
            "Timetable": "Lundi au Vendredi 9h-17h",
            "Longitude": 0.728226,
            "Latitude": 43.109537,
            "Phone": "05.61.94.52.30",
            "Weblink": "  "
        },
        {
            "Category": "infos",
            "Name": "Croix Rouge Française",
            "Adress": "2 rue de la République\n31800 Saint-Gaudens",
            "Timetable": "Du lundi au samedi (jours fériés compris)\nDe 11h à 14h30",
            "Longitude": 0.723787248134613,
            "Latitude": 43.108406,
            "Phone": "06.27.80.31.65",
            "Weblink": "  https://m.facebook.com/ulsaintgaudens/"
        },
        {
            "Category": "infos",
            "Name": "Emmaüs",
            "Adress": "14 avenue de Boulogne \n31800 Saint-Gaudens",
            "Timetable": "Mercredi 9h-12h / 14h-18h - Jeudi 9h-12h - Samedi 9h-12h / 14h-18h",
            "Longitude": 0.722975,
            "Latitude": 43.111189,
            "Phone": "05.61.94.92.67",
            "Weblink": "  "
        },
        {
            "Category": "infos",
            "Name": "Femmes de Papier 31",
            "Adress": "41 avenue Maréchal Joffre \n31800 Saint-Gaudens",
            "Timetable": "Mardi et Jeudi sur RDV 9h-12h / 14h-17h",
            "Longitude": 0.717615,
            "Latitude": 43.107913,
            "Phone": "05.61.89.43.07",
            "Weblink": "  "
        },
        {
            "Category": "infos",
            "Name": "Le Refuge Saint-Gaudens",
            "Adress": "4 rue de la république\nB.P. 156\n31800 Saint-Gaudens",
            "Timetable": "Accueil tous les vendredis de 14h à 16h30",
            "Longitude": 0.722325,
            "Latitude": 43.10774,
            "Phone": "07 66 38 10 40",
            "Weblink": ""
        },
        {
            "Category": "infos",
            "Name": "Maison des Solidarités du Conseil Départemental",
            "Adress": "4 avenue Maréchal Foch \n31800 Saint-Gaudens",
            "Timetable": "Lundi-Vendredi 8h30-12h / 13h30-17h",
            "Longitude": 0.718733,
            "Latitude": 43.106245,
            "Phone": "05.62.00.98.10",
            "Weblink": "  "
        },
        {
            "Category": "infos",
            "Name": "Réseau Education Sans Frontières",
            "Adress": "6 rue Maréchal Foch \n31800 Saint-Gaudens",
            "Timetable": "Le 2ème et le 4ème lundi du mois, à 17h",
            "Longitude": 0.71851,
            "Latitude": 43.106172,
            "Phone": "06.38.98.00.89",
            "Weblink": "  "
        },
        {
            "Category": "infos",
            "Name": "Secours Catholique Caritas France",
            "Adress": "10 avenue du Maréchal Joffre \n31800 Saint-Gaudens",
            "Timetable": "Le mardi de 9h30 à 16h30.",
            "Longitude": 0.719136,
            "Latitude": 43.107217,
            "Phone": "05.61.89.40.63",
            "Weblink": "  "
        },
        {
            "Category": "soigner",
            "Name": "Association de Prévention en Alcoologie et Addictologies (ANPAA 31)",
            "Adress": "Square Saint-Jean \n31800 Saint-Gaudens",
            "Timetable": "Mardi 14h-16h",
            "Longitude": 0.711413,
            "Latitude": 43.112447,
            "Phone": "05.61.88.11.73",
            "Weblink": "  "
        },
        {
            "Category": "soigner",
            "Name": "Centre Hospitalier Comminges Pyrénées (CHCP)",
            "Adress": "Avenue de Saint-Plancard \n31800 Saint-Gaudens",
            "Timetable": "",
            "Longitude": 0.711413,
            "Latitude": 43.108912,
            "Phone": "05.62.00.40.00",
            "Weblink": "  "
        },
        {
            "Category": "soigner",
            "Name": "P.A.S.S. Permanence d'Accès aux Soins de Santé",
            "Adress": "Centre Hospitalier Comminges Pyrénées\nAvenue de Saint-Plancard \n31800 Saint-Gaudens",
            "Timetable": "Mardi et Jeudi sur RDV 9h30-12h",
            "Longitude": 0.712138,
            "Latitude": 43.112668,
            "Phone": "05.62.00.45.75",
            "Weblink": "  "
        },
        {
            "Category": "soigner",
            "Name": "Secours Populaire Français - Comité de Saint-Gaudens",
            "Adress": "place de la Libération - 1 espace Pégot\n31800 Saint-Gaudens\n",
            "Timetable": "Jeudi 9h30-12h",
            "Longitude": 0.727583,
            "Latitude": 43.110528,
            "Phone": "05.61.89.52.20",
            "Weblink": "https://www.secourspopulaire.fr/31/"
        },
        {
            "Category": "laver",
            "Name": "Centre Culturel du Pilat",
            "Adress": "Place du Pilat \n31800 Saint-Gaudens",
            "Timetable": "Mardi 10h-12h - Vendredi 14h15-15h30",
            "Longitude": 0.721174,
            "Latitude": 43.11045,
            "Phone": "05.61.94.78.00",
            "Weblink": "  "
        },
        {
            "Category": "laver",
            "Name": "Croix Rouge Française",
            "Adress": "2 rue de la République\n31800 Saint-Gaudens",
            "Timetable": "Du lundi au samedi (jours fériés compris)\nDe 11h à 14h30",
            "Longitude": 0.723787248134613,
            "Latitude": 43.108406,
            "Phone": "06.27.80.31.65",
            "Weblink": "  https://m.facebook.com/ulsaintgaudens/"
        },
        {
            "Category": "laver",
            "Name": "Toilettes Publiques à la place de la Libération (Place Pégot)",
            "Adress": "",
            "Timetable": "",
            "Longitude": 0.728429,
            "Latitude": 43.109539,
            "Phone": "",
            "Weblink": "  "
        },
        {
            "Category": "laver",
            "Name": "Toilettes publiques dans le passage à côté de la Collégiale",
            "Adress": "",
            "Timetable": "",
            "Longitude": 0.724948,
            "Latitude": 43.107607,
            "Phone": "",
            "Weblink": "  "
        },
        {
            "Category": "laver",
            "Name": "Toilettes Publiques derrière la police municipale",
            "Adress": "",
            "Timetable": "",
            "Longitude": 0.724054,
            "Latitude": 43.109988,
            "Phone": "",
            "Weblink": "  "
        },
        {
            "Category": "laver",
            "Name": "Toilettes Publiques en bas de la mairie",
            "Adress": "",
            "Timetable": "",
            "Longitude": 0.723605,
            "Latitude": 43.106819,
            "Phone": "",
            "Weblink": "  "
        },
        {
            "Category": "laver",
            "Name": "Toilettes Publiques sur la place devant le théâtre municipal",
            "Adress": "",
            "Timetable": "",
            "Longitude": 0.72552,
            "Latitude": 43.109566,
            "Phone": "",
            "Weblink": "  "
        },
        {
            "Category": "domicile",
            "Name": "Centre Intercommunal d'Action Sociale (CIAS)",
            "Adress": "4 rue de la République \n31800 Saint-Gaudens",
            "Timetable": "Lundi au Vendredi 8h30-12h / 13h30-17h30",
            "Longitude": 0.722325,
            "Latitude": 43.10774,
            "Phone": "05.62.00.96.20",
            "Weblink": "  "
        },
        {
            "Category": "manger",
            "Name": "Centre Social Azimut",
            "Adress": "Place de la Libération (espace Pégot) \n31800 Saint-Gaudens",
            "Timetable": "Lundi au Vendredi 9h-17h",
            "Longitude": 0.728226,
            "Latitude": 43.109537,
            "Phone": "05.61.94.52.30",
            "Weblink": "  "
        },
        {
            "Category": "manger",
            "Name": "Croix Rouge Française",
            "Adress": "2 rue de la République\n31800 Saint-Gaudens",
            "Timetable": "Du lundi au samedi (jours fériés compris)\nDe 11h à 14h30",
            "Longitude": 0.723787248134613,
            "Latitude": 43.108406,
            "Phone": "06.27.80.31.65",
            "Weblink": "  https://m.facebook.com/ulsaintgaudens/"
        },
        {
            "Category": "manger",
            "Name": "LA CASA (Lieu d'Accueil Convivial d'Activités Solidaires Associatives)",
            "Adress": "47 Avenue de l'Isle, 31800 Saint- Gaudens ",
            "Timetable": "Lundi et Vendredi : 10h-17h\nMardi et Jeudi : 10h-19h\nMercredi : 14h30-19h\nSamedi : 10h-13h",
            "Longitude": 0.726991,
            "Latitude": 43.117228,
            "Phone": "05.61.89.68.67",
            "Weblink": ""
        },
        {
            "Category": "manger",
            "Name": "Les Restos du Coeur",
            "Adress": "8 rue Lamartine \n31800 Saint-Gaudens",
            "Timetable": "Inscriptions le lundi matin de 9 à 11h. Distributions le mardi et vendredi de 14 à 16h",
            "Longitude": 0.7267892,
            "Latitude": 43.1055655,
            "Phone": "09 62 11 93 18",
            "Weblink": "  "
        },
        {
            "Category": "manger",
            "Name": "Secours Catholique Caritas France",
            "Adress": "10 avenue du Maréchal Joffre\n31800 Saint-Gaudens",
            "Timetable": "Le mardi de 9h30 à 16h30.",
            "Longitude": 0.719136,
            "Latitude": 43.107217,
            "Phone": "05.61.89.40.63",
            "Weblink": "  "
        },
        {
            "Category": "manger",
            "Name": "Secours Populaire Français - Comité de Saint-Gaudens",
            "Adress": "place de la Libération - 1 espace Pégot\n31800 Saint-Gaudens",
            "Timetable": "Mercredi 15h-18h - Jeudi 10h-12h",
            "Longitude": 0.727583,
            "Latitude": 43.110528,
            "Phone": "05.61.89.52.20",
            "Weblink": "https://www.secourspopulaire.fr/31/"
        },
        {
            "Category": "habiller",
            "Name": "Croix Rouge Française",
            "Adress": "2 rue de la République\n31800 Saint-Gaudens",
            "Timetable": "Lundi, mercredi et vendredi de 15h à 17h30.",
            "Longitude": 0.723787248134613,
            "Latitude": 43.108406,
            "Phone": "06.27.80.31.65",
            "Weblink": "  https://m.facebook.com/ulsaintgaudens/"
        },
        {
            "Category": "habiller",
            "Name": "Emmaüs",
            "Adress": "14 avenue de Boulogne \n31800 Saint-Gaudens",
            "Timetable": "Mercredi 9h-12h / 14h-18h - Jeudi 9h-12h - Samedi 9h-12h / 14h-18h",
            "Longitude": 0.722975,
            "Latitude": 43.111189,
            "Phone": "05.61.94.92.67",
            "Weblink": "  "
        },
        {
            "Category": "habiller",
            "Name": "Secours Catholique Caritas France",
            "Adress": "rue Pierre Curie\n31800 Saint-Gaudens",
            "Timetable": "Le mardi de 13h30 à 16h.",
            "Longitude": 0.725967,
            "Latitude": 43.105878,
            "Phone": "05.61.89.40.63",
            "Weblink": "  "
        },
        {
            "Category": "habiller",
            "Name": "Secours Populaire Français - Comité de Saint-Gaudens",
            "Adress": "place de la Libération - 1 espace Pégot\n31800 Saint-Gaudens",
            "Timetable": "Mercredi 15h-18h - Jeudi 10h-12h",
            "Longitude": 0.727583,
            "Latitude": 43.110528,
            "Phone": "05.61.89.52.20",
            "Weblink": "https://www.secourspopulaire.fr/31/"
        }
    ]
}