{
  "kind": "collectionType",
  "collectionName": "sectorlanguages",
  "info": {
    "name": "Sectorlanguages",
    "description": ""
  },
  "options": {
    "increments": true,
    "timestamps": true,
    "draftAndPublish": true
  },
  "pluginOptions": {},
  "attributes": {
    "language": {
      "via": "sectorlanguages",
      "model": "languages"
    }
  }
}
